<svg width="2530" height="1476" viewBox="0 0 2530 1476" fill="none" xmlns="http://www.w3.org/2000/svg">
<mask id="mask0" mask-type="alpha" maskUnits="userSpaceOnUse" x="0" y="0" width="2530" height="1476">
<rect width="2530" height="1476" rx="12" fill="#F2F2F2"/>
</mask>
<g mask="url(#mask0)">
<path fill-rule="evenodd" clip-rule="evenodd" d="M2530 -26L0 -26L0 1975L2530 1975V-26ZM509.56 707.427C504.037 707.427 499.56 711.904 499.56 717.427V1469.87C499.56 1475.39 504.037 1479.87 509.56 1479.87H950.567C956.09 1479.87 960.567 1475.39 960.567 1469.87L960.567 717.427C960.567 711.904 956.09 707.427 950.567 707.427H509.56ZM1024.82 1117.78C1024.82 1112.26 1029.3 1107.78 1034.82 1107.78H1469.58C1475.1 1107.78 1479.58 1112.26 1479.58 1117.78V1581.84C1479.58 1587.36 1475.1 1591.84 1469.58 1591.84H1034.82C1029.3 1591.84 1024.82 1587.36 1024.82 1581.84V1117.78ZM1558.65 912.361C1553.13 912.361 1548.65 916.838 1548.65 922.361V1701.06C1548.65 1706.59 1553.13 1711.06 1558.65 1711.06H2015.33C2020.85 1711.06 2025.33 1706.59 2025.33 1701.06V922.361C2025.33 916.838 2020.85 912.361 2015.33 912.361L1558.65 912.361Z" fill="#FDE706"/>
<path d="M1030.08 1017.1H1030.38L1234.54 1059.56C1237.14 1060.33 1240.01 1060.33 1242.61 1059.56L1447.19 1017.07C1448.15 1017.07 1457.36 1014.85 1457.36 1004.7V477L1020 477L1020 1004.73C1020 1015.31 1029.75 1017.03 1030.17 1017.1" fill="#005178"/>
<path d="M1030.19 1017.19H1030.48L1234.5 1059.6C1237.11 1060.32 1239.95 1060.32 1242.56 1059.6L1447.17 1017.09C1448.17 1016.89 1457.36 1014.88 1457.36 1004.7V477L1020 477L1020 1004.79C1020 1015.37 1029.77 1017.12 1030.19 1017.19Z" stroke="#005178" stroke-width="0.24" stroke-miterlimit="10"/>
<path d="M1118.97 618.745L1106.26 650.027L1093.56 618.745H1067.19V681.266H1086.73V641.988L1099.93 681.266H1112.72L1125.84 641.988V681.266H1145.38V618.745H1118.97Z" fill="#FFDD00"/>
<path d="M1119.09 618.412L1106.26 650.027L1093.47 618.412H1066.9V681.6H1086.56V641.904L1099.89 681.6H1112.76L1125.96 641.904V681.6H1145.67V618.412H1119.09Z" stroke="#FFDD00" stroke-width="0.23" stroke-miterlimit="10"/>
<path d="M1153.21 618.746V681.267H1204.69V668.979H1172.78V655.567H1204.02V643.279H1172.78V631.075H1204.02V618.746H1153.21Z" fill="#FFDD00"/>
<path d="M1172.7 669.145V655.649H1204.31V643.237H1172.7V630.866H1204.31V618.453H1152.87V681.599H1204.98L1205.02 669.145H1172.7Z" stroke="#FFDD00" stroke-width="0.23" stroke-miterlimit="10"/>
<path d="M1209.85 618.745V631.033H1228.43V681.267H1247.97V631.033H1266.54V618.745H1209.85Z" fill="#FFDD00"/>
<path d="M1209.56 630.866H1228.35V681.599H1248.09V630.866H1266.88V618.453H1209.56V630.866Z" stroke="#FFDD00" stroke-width="0.23" stroke-miterlimit="10"/>
<path d="M1362.3 633.489C1362.3 632.845 1362.56 632.226 1363.01 631.766C1363.46 631.307 1364.08 631.043 1364.72 631.032H1386.71C1387.36 631.032 1387.99 631.291 1388.45 631.752C1388.91 632.213 1389.17 632.838 1389.17 633.489V666.52C1389.17 666.843 1389.11 667.163 1388.98 667.461C1388.86 667.759 1388.68 668.03 1388.45 668.258C1388.22 668.486 1387.95 668.667 1387.65 668.791C1387.35 668.914 1387.04 668.978 1386.71 668.978H1364.72C1364.08 668.967 1363.46 668.703 1363.01 668.243C1362.56 667.784 1362.3 667.165 1362.3 666.52V633.489ZM1396.5 618.619H1354.85C1353.33 618.451 1351.79 618.602 1350.33 619.063C1348.87 619.524 1347.52 620.285 1346.37 621.296C1345.22 622.308 1344.3 623.548 1343.66 624.937C1343.01 626.327 1342.67 627.835 1342.64 629.366V669.811C1342.67 671.376 1343.01 672.919 1343.65 674.346C1344.29 675.774 1345.22 677.055 1346.38 678.112C1347.53 679.169 1348.89 679.979 1350.37 680.492C1351.84 681.006 1353.41 681.212 1354.97 681.099H1396.63C1398.18 681.183 1399.73 680.954 1401.19 680.425C1402.65 679.897 1403.99 679.08 1405.13 678.023C1406.27 676.965 1407.18 675.69 1407.82 674.272C1408.46 672.854 1408.8 671.323 1408.83 669.769V629.491C1408.82 627.94 1408.48 626.409 1407.83 624.998C1407.19 623.587 1406.26 622.328 1405.09 621.302C1403.93 620.277 1402.56 619.508 1401.08 619.045C1399.6 618.583 1398.04 618.438 1396.5 618.619" fill="#FFDD00"/>
<path d="M1362.18 633.323C1362.18 633 1362.24 632.681 1362.36 632.382C1362.49 632.084 1362.67 631.813 1362.9 631.585C1363.13 631.357 1363.4 631.176 1363.69 631.052C1363.99 630.929 1364.31 630.865 1364.63 630.865H1386.96C1387.28 630.865 1387.6 630.929 1387.9 631.052C1388.2 631.176 1388.47 631.357 1388.7 631.585C1388.93 631.813 1389.11 632.084 1389.23 632.382C1389.35 632.681 1389.42 633 1389.42 633.323V666.645C1389.42 666.969 1389.36 667.292 1389.24 667.592C1389.12 667.893 1388.94 668.166 1388.71 668.396C1388.48 668.625 1388.21 668.806 1387.91 668.927C1387.61 669.049 1387.29 669.108 1386.96 669.103H1364.63C1364.31 669.108 1363.99 669.049 1363.69 668.927C1363.39 668.806 1363.11 668.625 1362.88 668.396C1362.66 668.166 1362.47 667.893 1362.35 667.592C1362.23 667.292 1362.17 666.969 1362.18 666.645V633.323ZM1396.71 618.619L1354.76 618.619C1353.21 618.433 1351.64 618.573 1350.15 619.031C1348.66 619.49 1347.28 620.256 1346.1 621.28C1344.92 622.305 1343.97 623.565 1343.31 624.979C1342.65 626.393 1342.3 627.93 1342.27 629.491V670.352C1342.29 671.939 1342.64 673.504 1343.29 674.952C1343.94 676.399 1344.88 677.699 1346.05 678.771C1347.22 679.844 1348.59 680.666 1350.09 681.188C1351.59 681.71 1353.18 681.92 1354.76 681.807H1396.71C1398.29 681.914 1399.88 681.699 1401.37 681.175C1402.87 680.651 1404.24 679.828 1405.41 678.757C1406.58 677.686 1407.52 676.389 1408.17 674.944C1408.82 673.499 1409.17 671.937 1409.2 670.352V629.283C1409.15 627.74 1408.77 626.226 1408.1 624.836C1407.42 623.447 1406.47 622.212 1405.29 621.21C1404.12 620.208 1402.75 619.46 1401.27 619.014C1399.79 618.568 1398.24 618.434 1396.71 618.619Z" stroke="#FFDD00" stroke-width="0.23" stroke-miterlimit="10"/>
<path d="M1272.37 618.619V681.098H1291.95V656.981H1299.7L1312.19 681.265H1334.69L1319.57 656.981H1322.52C1325.66 657.06 1328.69 655.902 1330.98 653.758C1333.26 651.614 1334.61 648.657 1334.73 645.526V629.49C1334.71 627.97 1334.38 626.471 1333.76 625.085C1333.13 623.699 1332.23 622.457 1331.1 621.436C1329.98 620.415 1328.65 619.638 1327.21 619.154C1325.77 618.669 1324.25 618.487 1322.73 618.619H1272.37ZM1291.95 631.115H1314.9C1315.55 631.125 1316.16 631.389 1316.61 631.849C1317.06 632.309 1317.32 632.927 1317.32 633.572V640.945C1317.32 641.585 1317.06 642.2 1316.61 642.653C1316.16 643.106 1315.54 643.361 1314.9 643.361H1291.95V631.115Z" fill="#FFDD00"/>
<path d="M1272.08 618.619V681.599H1291.91V657.023H1299.78L1312.65 681.599H1335.44L1320.32 657.023H1323.32C1324.9 657.09 1326.47 656.845 1327.96 656.3C1329.44 655.756 1330.8 654.924 1331.96 653.852C1333.12 652.78 1334.06 651.489 1334.72 650.053C1335.38 648.617 1335.75 647.065 1335.81 645.486V629.283C1335.78 627.722 1335.43 626.185 1334.77 624.771C1334.11 623.357 1333.16 622.097 1331.98 621.072C1330.8 620.048 1329.42 619.282 1327.93 618.823C1326.44 618.365 1324.87 618.225 1323.32 618.411L1272.08 618.619ZM1291.91 631.115H1315.15C1315.48 631.11 1315.8 631.169 1316.11 631.29C1316.41 631.411 1316.69 631.591 1316.92 631.82C1317.15 632.049 1317.34 632.322 1317.46 632.623C1317.59 632.924 1317.65 633.247 1317.65 633.573V640.987C1317.65 641.65 1317.39 642.286 1316.92 642.754C1316.45 643.223 1315.82 643.486 1315.15 643.486H1291.91V631.115Z" stroke="#FFDD00" stroke-width="0.23" stroke-miterlimit="10"/>
<path d="M1186.19 814.721C1186.19 814.721 1180.24 835.215 1166.58 832.257C1166.19 832.204 1165.83 832.03 1165.54 831.761C1165.26 831.492 1165.07 831.142 1164.99 830.758C1164.78 829.716 1165.49 829.633 1166.12 828.967C1170.28 824.801 1176.41 806.058 1167.2 802.892C1158 799.726 1146.96 809.515 1141.83 817.387C1132.63 830.434 1126.7 845.507 1124.55 861.331C1119.67 892.696 1141.21 903.65 1155.04 896.528C1160.56 894.082 1165.3 890.162 1168.74 885.198C1169.99 883.324 1170.99 881.283 1172.12 879.283C1172.49 878.575 1172.74 877.742 1173.78 878.034C1174.17 878.147 1174.51 878.39 1174.75 878.723C1174.98 879.056 1175.1 879.46 1175.07 879.867C1175.1 880.962 1174.97 882.055 1174.7 883.116C1172.36 890.48 1167.84 896.958 1161.73 901.69C1155.62 906.422 1148.22 909.183 1140.5 909.607C1109.84 910.648 1094.02 881.449 1106.1 844.212C1114.76 817.512 1135.79 794.228 1164.12 794.228C1192.44 794.228 1186.19 815.055 1186.19 815.055" fill="white"/>
<path d="M1273.87 872.702C1273.5 874.202 1273.87 874.452 1275.37 874.285C1293.58 872.202 1297.95 842.92 1293.33 840.963C1285.33 837.63 1276.12 864.288 1273.87 872.66V872.702ZM1274.46 877.659C1273.21 877.659 1272.54 877.659 1272.42 878.95C1270.46 898.485 1278.66 900.61 1284.58 897.527C1291.76 893.488 1297.71 887.589 1301.82 880.45C1301.93 880.198 1302.08 879.971 1302.28 879.783C1302.47 879.594 1302.7 879.448 1302.96 879.354C1303.21 879.26 1303.48 879.22 1303.75 879.237C1304.02 879.253 1304.29 879.326 1304.53 879.45C1305.36 879.825 1305.45 881.324 1304.99 882.407C1299.2 896.278 1284.95 906.024 1273.17 906.233C1264.09 906.233 1255.88 900.693 1253.17 886.739C1250.39 891.907 1246.74 896.557 1242.38 900.485C1240.15 902.877 1237.31 904.614 1234.16 905.51C1231.01 906.405 1227.67 906.425 1224.52 905.566C1222.15 904.82 1220.14 903.258 1218.82 901.159C1217.51 899.059 1216.99 896.561 1217.35 894.112C1219.5 882.953 1222.28 871.925 1225.68 861.081C1227.01 857.003 1228 852.824 1228.64 848.585C1228.97 845.17 1227.93 844.42 1224.47 845.503C1212.44 849.668 1203.86 876.992 1200.65 889.197C1199.77 892.548 1199.12 895.958 1198.73 899.402C1198.74 900.406 1198.39 901.381 1197.74 902.146C1197.09 902.912 1196.19 903.416 1195.19 903.567C1192.81 904.281 1190.37 904.811 1187.9 905.15C1181.95 905.816 1179.07 902.526 1179.91 896.444C1182.2 879.325 1205.9 803.308 1204.69 803.1C1201.91 803.321 1199.29 804.465 1197.23 806.349C1195.36 807.932 1194.4 808.182 1193.78 807.182C1193.15 806.182 1193.03 804.308 1195.77 801.809C1199.94 798.018 1209.85 794.02 1214.48 795.852C1216.26 796.338 1217.81 797.444 1218.85 798.971C1219.89 800.499 1220.35 802.347 1220.14 804.183C1219.38 813.283 1217.53 822.26 1214.64 830.924C1212.1 839.713 1209.44 848.46 1206.73 857.499C1211.82 850.606 1217.8 844.416 1224.52 839.088C1226.84 837.406 1229.46 836.198 1232.25 835.533C1235.04 834.868 1237.93 834.76 1240.76 835.214C1243.2 835.652 1245.38 837.033 1246.81 839.059C1248.24 841.086 1248.82 843.594 1248.42 846.044C1245.65 859.264 1242.21 872.332 1238.09 885.198C1235.72 894.278 1231.47 906.024 1242.68 892.779C1247.83 887.599 1251.61 881.213 1253.67 874.202C1259 849.918 1279.91 833.548 1296.2 835.214C1299.64 835.573 1302.81 837.256 1305.03 839.906C1307.25 842.557 1308.36 845.968 1308.11 849.418C1307.39 857.63 1303.45 865.225 1297.16 870.546C1290.86 875.867 1282.72 878.484 1274.5 877.825" fill="white"/>
<path d="M1362.39 796.851H1361.97C1340.73 796.851 1330.77 811.721 1323.65 837.005C1321.28 836.971 1318.93 837.352 1316.69 838.129C1313.82 839.587 1313.65 842.878 1317.15 843.419C1318.76 843.596 1320.38 843.596 1321.98 843.419C1314.78 872.243 1311.99 905.899 1296.74 930.266C1294.24 934.72 1291.16 938.824 1287.58 942.47C1286.62 943.386 1285.95 944.428 1286.99 945.511C1288.03 946.594 1290.83 945.177 1292.66 944.219C1308.68 933.653 1320.94 918.284 1327.69 900.317C1332.35 888.28 1336.98 864.371 1341.14 842.961C1344.31 842.961 1347.47 842.711 1350.1 842.42C1352.93 842.35 1355.74 841.858 1358.43 840.962C1361.18 839.587 1361.59 835.922 1357.89 835.839C1355.35 835.839 1352.31 836.172 1348.35 836.38L1342.27 836.63C1343.85 828.841 1345.39 821.676 1346.85 815.803C1348.89 807.931 1352.97 798.767 1361.09 800.434C1358.12 802.962 1356.07 806.404 1355.26 810.222C1354.62 812.398 1354.86 814.738 1355.93 816.74C1357 818.741 1358.81 820.245 1360.97 820.927C1363.8 821.695 1366.81 821.394 1369.43 820.079C1372.05 818.765 1374.1 816.531 1375.17 813.804C1375.86 811.796 1376.04 809.652 1375.7 807.558C1375.36 805.465 1374.52 803.485 1373.24 801.793C1371.96 800.1 1370.29 798.746 1368.37 797.849C1366.45 796.951 1364.34 796.537 1362.22 796.643" fill="white"/>
</g>
</svg>
