<svg width="30" height="12" viewBox="0 0 30 12" fill="none" xmlns="http://www.w3.org/2000/svg">
<rect y="12" width="1" height="30" transform="rotate(-90 0 12)" fill="black"/>
<rect y="1" width="1" height="30" transform="rotate(-90 0 1)" fill="black"/>
</svg>
