<svg width="26" height="17" viewBox="0 0 26 17" fill="none" xmlns="http://www.w3.org/2000/svg">
<g opacity="0.4">
<rect x="17.1968" y="17" width="1" height="11" transform="rotate(-135 17.1968 17)" fill="white"/>
<rect x="17.002" y="1.47314" width="1" height="11" transform="rotate(-45 17.002 1.47314)" fill="white"/>
<rect y="9.27637" width="1" height="25" transform="rotate(-90 0 9.27637)" fill="white"/>
</g>
</svg>
